20

6
Jess
Nick
Schmidt
Winston
Cece
Coach
4 6 3 1 2 5
6 2 5 1 3 4
3 4 2 5 1 6
2 4 6 1 3 5
5 2 6 1 4 3
4 5 1 2 6 3
6 5 2 4 1 3
3 2 1 4 6 5
4 3 5 2 1 6
1 6 2 4 3 5

6
Jess
Nick
Schmidt
Winston
Cece
Coach
6 1 3 4 2 5
3 1 6 2 4 5
4 1 6 2 5 3
2 6 4 1 5 3
1 3 5 4 2 6
4 6 5 2 1 3
2 4 1 6 5 3

4
Jessica
Anushka
Morgan
Nitisha
4 1 3 2
1 2 4 3
1 3 2 4
4 3 2 1
2 1 4 3
2 3 1 4
2 3 1 4
2 4 3 1
4 2 1 3

6
Jess
Nick
Schmidt
Winston
Cece
Coach
5 6 2 1 3 4
3 1 4 2 6 5
2 6 1 5 3 4
5 2 1 6 3 4
1 4 3 2 5 6

9
Blair
Serena
Chuck
Nate
Dan
Lily
Rufus
Jenny
Eric
7 9 3 8 2 1 6 5 4
1 4 9 5 3 6 8 2 7
5 2 3 4 7 1 9 8 6
4 9 7 6 3 8 5 2 1
7 6 9 8 3 4 2 5 1
4 5 3 2 8 1 6 9 7
1 8 6 9 7 5 2 4 3

5
Ted
Robin
Lily
Marshall
Barney
4 5 2 3 1
2 5 4 1 3
4 1 2 5 3
2 4 3 1 5
3 4 1 5 2
5 3 2 4 1
1 5 3 4 2

10
Blair
Serena
Chuck
Nate
Dan
Lily
Rufus
Jenny
Eric
Georgina
3 5 8 9 2 1 10 4 7 6
1 5 9 6 8 2 3 7 10 4
10 3 4 2 5 7 6 1 8 9
8 3 9 6 1 7 2 10 5 4
8 5 4 7 3 1 10 2 6 9
9 7 2 4 6 1 8 3 10 5
1 6 5 4 3 2 10 9 7 8
1 3 9 5 7 6 4 2 8 10
6 8 2 9 10 1 4 3 7 5

2
Brad Pitt
Angelina Jolie
2 1

2
Taylor Swift
Harry Styles
1 2
1 2
1 2
1 2
2 1

7
McDonalds
Burger King
Wendys
Whataburger
Sonic
PTerrys
In n Out
7 1 5 4 2 3 6
1 4 2 3 5 7 6

3
JJ
Pope
John B
1 3 2
3 2 1
1 3 2
2 3 1
1 2 3
2 1 3
1 2 3

8
McDonalds
Burger King
Wendys
Whataburger
Sonic
PTerrys
In n Out
Jack in the Box
5 4 8 2 3 1 7 6
1 8 5 3 7 4 2 6
5 8 2 7 3 6 4 1
1 5 4 7 3 6 8 2
8 2 7 1 6 4 3 5
2 4 6 8 3 7 1 5
2 6 1 7 3 4 5 8
6 7 8 1 3 2 5 4
1 3 7 5 2 4 6 8

5
Ted
Robin
Lily
Marshall
Barney
3 5 2 1 4
4 3 5 1 2
2 5 3 4 1
1 3 5 4 2
4 3 5 2 1

6
Jess
Nick
Schmidt
Winston
Cece
Coach
6 3 5 4 1 2
6 2 5 3 1 4
5 1 4 2 6 3
5 4 2 1 6 3
6 5 3 4 2 1
4 5 1 2 6 3
2 6 1 4 3 5
5 1 3 4 2 6
5 3 6 1 2 4

3
Chipotle
Cabo Bobs
Taco Bell
2 3 1
2 1 3
2 1 3
3 2 1
3 1 2
1 3 2
1 3 2
1 2 3

5
Ted
Robin
Lily
Marshall
Barney
2 5 3 4 1
3 5 2 1 4
1 2 5 4 3
1 5 3 2 4
3 5 4 1 2
3 2 5 4 1
3 1 5 4 2

4
Jessica
Anushka
Morgan
Nitisha
4 3 1 2
1 3 4 2
1 4 3 2

8
McDonalds
Burger King
Wendys
Whataburger
Sonic
PTerrys
In n Out
Jack in the Box
7 4 2 6 8 5 1 3
7 8 4 3 1 5 2 6
1 6 8 2 5 3 4 7
5 4 3 6 1 2 8 7
4 5 6 7 3 2 1 8
6 1 8 4 2 5 3 7

5
Ted
Robin
Lily
Marshall
Barney
2 1 3 4 5
5 3 1 4 2
5 3 4 2 1
3 1 5 2 4
2 1 5 4 3
3 1 2 5 4

9
McDonalds
Burger King
Wendys
Whataburger
Sonic
PTerrys
In n Out
Jack in the Box
Arbys
4 1 9 3 5 2 7 6 8
5 7 3 9 4 6 8 2 1
5 8 9 7 3 1 4 6 2
2 7 1 4 8 9 5 6 3
7 9 1 2 8 4 6 3 5
6 1 4 3 2 8 9 7 5
