20

6
Frederick Bender
Sallie Oliver
Mabel Murray
Melvin Torres
Sylvia Copeland
Sahil Mcguire
1 2 6 4 5 3
5 4 1 2 3 6
4 6 1 5 2 3
4 2 1 6 5 3
6 4 1 3 2 5
4 3 1 2 6 5
1 4 2 3 5 6
3 2 5 6 4 1

8
Frederick Bender
Sallie Oliver
Mabel Murray
Melvin Torres
Sylvia Copeland
Sahil Mcguire
Sion Davidson
Phyllis Cohen
4 8 1 7 5 6 2 3
6 1 7 2 4 3 5 8
7 8 2 1 4 5 6 3
6 3 1 4 5 7 8 2
3 4 5 7 1 8 2 6
5 3 7 8 6 2 1 4
5 4 8 7 2 6 3 1
6 8 2 1 5 7 4 3
6 4 2 1 3 7 5 8
2 4 5 6 3 7 1 8

6
Frederick Bender
Sallie Oliver
Mabel Murray
Melvin Torres
Sylvia Copeland
Sahil Mcguire
4 5 2 1 6 3

2
Frederick Bender
Sallie Oliver
1 2
1 2
1 2
2 1

9
Frederick Bender
Sallie Oliver
Mabel Murray
Melvin Torres
Sylvia Copeland
Sahil Mcguire
Sion Davidson
Phyllis Cohen
Alex Walker
7 2 6 4 5 1 9 3 8
4 3 7 8 5 1 9 2 6
9 3 4 8 1 5 7 6 2
6 3 9 2 4 7 8 5 1
9 4 2 1 7 6 8 5 3
8 2 1 6 3 4 5 7 9
8 5 1 6 2 4 3 7 9
4 5 6 7 1 9 2 8 3
1 6 9 5 3 8 2 4 7

7
Frederick Bender
Sallie Oliver
Mabel Murray
Melvin Torres
Sylvia Copeland
Sahil Mcguire
Sion Davidson
2 4 3 1 5 6 7
1 3 7 5 4 2 6
7 2 5 6 3 1 4
6 4 5 1 7 2 3
4 2 7 5 6 3 1
4 5 2 3 6 7 1
1 4 6 7 3 2 5
1 6 2 7 5 3 4

4
Frederick Bender
Sallie Oliver
Mabel Murray
Melvin Torres
3 2 1 4
2 1 4 3
2 3 4 1
2 1 4 3

8
Frederick Bender
Sallie Oliver
Mabel Murray
Melvin Torres
Sylvia Copeland
Sahil Mcguire
Sion Davidson
Phyllis Cohen
6 4 3 1 8 7 2 5
3 8 6 2 7 1 5 4
4 2 8 1 7 6 3 5
4 1 5 3 8 7 6 2
6 2 3 7 4 5 8 1
5 7 3 2 1 4 8 6
3 4 6 8 7 5 1 2
7 4 3 1 2 6 8 5
3 6 5 8 2 4 7 1
6 3 5 7 8 4 2 1

8
Frederick Bender
Sallie Oliver
Mabel Murray
Melvin Torres
Sylvia Copeland
Sahil Mcguire
Sion Davidson
Phyllis Cohen
7 4 8 2 3 5 1 6
4 3 7 6 5 8 2 1
8 4 6 2 5 3 1 7
3 8 4 6 5 2 1 7
5 4 6 3 1 7 2 8
7 8 5 4 1 3 2 6
2 3 8 7 4 6 1 5
5 3 1 4 6 7 2 8
1 3 5 8 7 4 2 6

6
Frederick Bender
Sallie Oliver
Mabel Murray
Melvin Torres
Sylvia Copeland
Sahil Mcguire
6 1 2 3 5 4
2 3 4 6 5 1
3 5 1 4 6 2
6 4 1 5 3 2
2 1 6 5 4 3
3 2 4 1 5 6
6 5 1 3 4 2

3
Frederick Bender
Sallie Oliver
Mabel Murray
3 1 2
1 3 2
2 1 3
1 2 3

2
Frederick Bender
Sallie Oliver
1 2
1 2
1 2
1 2
1 2
2 1

10
Frederick Bender
Sallie Oliver
Mabel Murray
Melvin Torres
Sylvia Copeland
Sahil Mcguire
Sion Davidson
Phyllis Cohen
Alex Walker
Rodney Berry
6 10 1 8 7 5 9 3 4 2
6 9 2 3 5 1 8 10 7 4

8
Frederick Bender
Sallie Oliver
Mabel Murray
Melvin Torres
Sylvia Copeland
Sahil Mcguire
Sion Davidson
Phyllis Cohen
6 2 5 1 8 3 7 4
1 2 4 6 7 5 8 3
8 7 1 3 6 2 5 4
1 6 7 2 8 5 4 3
1 7 6 5 4 3 8 2
8 7 4 6 1 2 5 3
2 1 7 6 8 5 3 4
2 3 6 5 1 7 4 8

7
Frederick Bender
Sallie Oliver
Mabel Murray
Melvin Torres
Sylvia Copeland
Sahil Mcguire
Sion Davidson
5 6 7 2 1 3 4
2 1 5 6 7 3 4
3 4 1 7 2 5 6
3 1 5 2 6 4 7
7 1 5 3 4 2 6
7 1 3 2 5 6 4
4 2 6 1 7 5 3

8
Frederick Bender
Sallie Oliver
Mabel Murray
Melvin Torres
Sylvia Copeland
Sahil Mcguire
Sion Davidson
Phyllis Cohen
1 6 3 2 5 4 8 7
6 7 4 2 5 1 3 8
2 3 8 4 6 1 7 5
3 6 5 8 2 7 1 4
2 6 3 4 1 8 7 5

7
Frederick Bender
Sallie Oliver
Mabel Murray
Melvin Torres
Sylvia Copeland
Sahil Mcguire
Sion Davidson
3 6 1 7 2 4 5
3 2 1 4 6 7 5

4
Frederick Bender
Sallie Oliver
Mabel Murray
Melvin Torres
4 1 3 2
4 1 3 2
4 2 1 3
4 1 2 3

10
Frederick Bender
Sallie Oliver
Mabel Murray
Melvin Torres
Sylvia Copeland
Sahil Mcguire
Sion Davidson
Phyllis Cohen
Alex Walker
Rodney Berry
3 7 9 1 8 10 6 2 4 5
8 9 3 10 6 5 4 1 7 2
5 6 10 2 9 8 3 1 4 7
4 2 9 10 6 5 1 3 8 7
10 5 6 9 3 8 1 4 2 7
7 9 3 1 4 10 5 2 6 8
9 4 7 5 10 3 6 8 2 1

9
Frederick Bender
Sallie Oliver
Mabel Murray
Melvin Torres
Sylvia Copeland
Sahil Mcguire
Sion Davidson
Phyllis Cohen
Alex Walker
1 3 2 7 8 5 4 6 9
2 4 6 9 8 7 3 5 1
