20

3
A
B
C
1 3 2
1 2 3
2 1 3
3 1 2
2 1 3
2 3 1
1 3 2

4
Banana
Apples
Kiwi
Strawberries
4 1 3 2
3 2 1 4
3 2 1 4
1 2 3 4
4 1 2 3
1 3 2 4
1 4 3 2
4 2 3 1

4
X
Y
Z
R
1 2 3 4
3 2 1 4
2 1 3 4
1 3 2 4
4 1 2 3

2
aaaa
bbbb
1 2
2 1
1 2
2 1

6
D
E
F
G
H
I
2 1 3 4 5 6
6 2 1 3 4 5
6 1 2 5 4 3
6 2 3 4 5 1
6 5 4 3 2 1
5 4 3 6 2 1

3
yogurt
fruit
trail mix
1 2 3
3 1 2
2 1 3
1 3 2
2 3 1

5
chair
sofa
bed
tv
shoes
3 4 5 2 1
1 3 2 4 5
5 3 2 1 4
1 2 3 4 5
3 4 2 5 1
4 2 3 1 5
3 2 1 4 5
5 4 2 3 1

3
dd
ee
rr
1 3 2
1 2 3
1 2 3
2 3 1

16
AA
BB
CC
DD
EE
FF
GG
HH
II
JJ
KK
LL
MM
NN
OO
PP
9 13 16 15 4 3 1 11 2 6 12 14 7 5 8 10
6 7 1 13 8 2 16 14 10 12 5 15 9 11 4 3
16 10 2 14 12 3 5 15 6 11 9 8 13 4 1 7
2 13 6 7 12 16 14 4 8 15 9 5 11 3 1 10
6 11 8 16 7 5 9 2 15 10 1 12 4 14 13 3
11 15 12 10 5 8 14 3 16 2 6 13 7 1 9 4
4 2 12 10 1 7 15 16 9 14 13 11 5 3 8 6
11 6 9 8 15 2 14 5 4 10 16 7 3 13 1 12

3
kit kat
pretzels
brownie
3 1 2
2 1 3
2 1 3
2 3 1
3 2 1
2 1 3
3 2 1
2 3 1
2 1 3
1 3 2

4
Lauren
Sheryl
Vibhuti
Rachel
1 2 3 4
1 2 3 4
2 1 3 4
2 3 1 4
4 1 2 3
4 3 2 1

5
aaa
bbb
ccc
ddd
eee
1 2 3 4 5
2 1 3 4 5
3 1 2 4 5
4 1 2 3 5
5 1 2 3 4

1
winner
1

3
John
Josh
Jake
1 2 3
1 2 3
2 1 3
2 1 3
3 1 2
3 1 2

2
Google
Microsoft
1 2
1 2
1 2
1 2
2 1

4
Ashley
Alison
Amelia
Audrey
2 1 3 4
2 3 4 1
3 1 2 4
4 3 2 1
3 2 1 4
2 3 1 4
2 4 1 3
3 1 4 2
3 4 1 2

10
one
two
three
four
five
six
seven
eight
nine
ten
1 2 3 4 5 6 7 8 9 10
1 3 2 4 8 5 6 7 10 9
2 3 1 4 9 6 5 7 8 10
2 7 4 3 5 6 1 9 8 10
10 2 3 1 4 5 6 7 8 9
8 5 4 3 2 6 7 9 10 1
8 6 7 9 2 3 10 4 1 5
3 10 5 6 7 4 1 8 9 2

5
Kim
Park
Lee
Oh
Choi
1 3 2 4 5
1 2 3 4 5
1 5 4 3 2
2 5 4 3 1
2 3 4 5 1
2 4 3 5 1
3 5 2 4 1

5
Monday
Tuesday
Wednesday
Thursday
Friday
2 3 4 5 1
1 2 3 4 5
1 5 4 3 2
2 5 4 3 1
1 3 2 4 5
2 4 3 5 1
3 5 4 2 1

3
Emily
Eric
Ernie
1 2 3
1 2 3
2 1 3
2 1 3
3 2 1
